…
## Chargement des packages et des données

``` r
library(tidyverse) 
```

``` r
plastic_waste <- read_csv("data/plastic-waste.csv")
 plastic_waste %>%
  filter(plastic_waste_per_cap< 3.5)
```

    ## # A tibble: 188 × 10
    ##    code  entity              continent    year gdp_per_cap plastic_waste_per_cap
    ##    <chr> <chr>               <chr>       <dbl>       <dbl>                 <dbl>
    ##  1 ALB   Albania             Europe       2010       9927.                 0.069
    ##  2 DZA   Algeria             Africa       2010      12871.                 0.144
    ##  3 AGO   Angola              Africa       2010       5898.                 0.062
    ##  4 AIA   Anguilla            North Amer…  2010         NA                  0.252
    ##  5 ATG   Antigua and Barbuda North Amer…  2010      19213.                 0.66 
    ##  6 ARG   Argentina           South Amer…  2010      18712.                 0.183
    ##  7 ABW   Aruba               North Amer…  2010         NA                  0.252
    ##  8 AUS   Australia           Oceania      2010      41464.                 0.112
    ##  9 BHS   Bahamas             North Amer…  2010      29222.                 0.39 
    ## 10 BHR   Bahrain             Asia         2010      40571.                 0.132
    ## # ℹ 178 more rows
    ## # ℹ 4 more variables: mismanaged_plastic_waste_per_cap <dbl>,
    ## #   mismanaged_plastic_waste <dbl>, coastal_pop <dbl>, total_pop <dbl>

Commençons par filtrer les données pour retirer le point représenté par
Trinité et Tobago (TTO) qui est un outlier.

``` r
 plastic_waste %>%
  filter(plastic_waste_per_cap< 3.5) 
```

    ## # A tibble: 188 × 10
    ##    code  entity              continent    year gdp_per_cap plastic_waste_per_cap
    ##    <chr> <chr>               <chr>       <dbl>       <dbl>                 <dbl>
    ##  1 ALB   Albania             Europe       2010       9927.                 0.069
    ##  2 DZA   Algeria             Africa       2010      12871.                 0.144
    ##  3 AGO   Angola              Africa       2010       5898.                 0.062
    ##  4 AIA   Anguilla            North Amer…  2010         NA                  0.252
    ##  5 ATG   Antigua and Barbuda North Amer…  2010      19213.                 0.66 
    ##  6 ARG   Argentina           South Amer…  2010      18712.                 0.183
    ##  7 ABW   Aruba               North Amer…  2010         NA                  0.252
    ##  8 AUS   Australia           Oceania      2010      41464.                 0.112
    ##  9 BHS   Bahamas             North Amer…  2010      29222.                 0.39 
    ## 10 BHR   Bahrain             Asia         2010      40571.                 0.132
    ## # ℹ 178 more rows
    ## # ℹ 4 more variables: mismanaged_plastic_waste_per_cap <dbl>,
    ## #   mismanaged_plastic_waste <dbl>, coastal_pop <dbl>, total_pop <dbl>
…
